CPE/CPE 324/Lab 1/simulation/qsim/Lab1.msim.vcd
$comment
	File created using the following command:
		vcd file Lab1.msim.vcd -direction
$end
$date
	Tue Jan 26 18:27:50 2021
$end
$version
	ModelSim Version 10.5b
$end
$timescale
	1ps
$end

$scope module Lab1_vlg_vec_tst $end
$var reg 1 ! I0 $end
$var reg 1 " I1 $end
$var reg 1 # I2 $end
$var reg 1 $ I3 $end
$var reg 1 % I4 $end
$var reg 1 & I5 $end
$var wire 1 ' out $end

$scope module i1 $end
$var wire 1 ( gnd $end
$var wire 1 ) vcc $end
$var wire 1 * unknown $end
$var tri1 1 + devclrn $end
$var tri1 1 , devpor $end
$var tri1 1 - devoe $end
$var wire 1 . ~QUARTUS_CREATED_GND~I_combout $end
$var wire 1 / ~QUARTUS_CREATED_UNVM~~busy $end
$var wire 1 0 ~QUARTUS_CREATED_ADC1~~eoc $end
$var wire 1 1 ~QUARTUS_CREATED_ADC2~~eoc $end
$var wire 1 2 out~output_o $end
$var wire 1 3 I5~input_o $end
$var wire 1 4 I3~input_o $end
$var wire 1 5 I2~input_o $end
$var wire 1 6 I4~input_o $end
$var wire 1 7 inst3~0_combout $end
$var wire 1 8 I0~input_o $end
$var wire 1 9 I1~input_o $end
$var wire 1 : inst3~combout $end
$upscope $end
$upscope $end
$enddefinitions $end
#0
$dumpvars
0!
0"
0#
0$
0%
0&
1'
0(
1)
x*
1+
1,
1-
0.
z/
z0
z1
12
03
04
05
06
17
08
09
1:
$end
#10000
1$
1%
16
14
#20000
1!
1"
19
18
#40000
0!
0"
09
08
#50000
0$
0%
06
04
#60000
1#
15
#80000
0#
05
#90000
1!
18
#100000
1$
1%
16
14
#120000
0$
0%
06
04
#160000
1$
14
#170000
0!
08
